{
  "init": {
    "description": "Create configuration json file.",
    "options": {
      "executable": ""
    }
  },
  "install": {
    "description": "Install AddieSaaS Frontend Forge and RocketEffect containers, setup .evn and run npm install.",
    "options": {
      "executable": ""
    }
  },
  "update": {
    "description": "Update existing installation",
    "options": {
      "executable": ""
    }
  }
}
